module gitlab.com/XiaoyeFang/exchangeWs

go 1.13

require (
	github.com/deckarep/golang-set v1.7.1
	github.com/go-openapi/errors v0.19.2
	github.com/google/uuid v1.1.1
	github.com/gorilla/websocket v1.4.1
	github.com/json-iterator/go v1.1.7
	github.com/nubo/jwt v0.0.0-20150918093313-da5b79c3bbaf
	github.com/pkg/errors v0.8.1
	github.com/stretchr/testify v1.4.0
)
